sequence detector/sequence detector.sim/sim_1/behav/xsim/dump.vcd
$date
   Sat Apr 10 14:27:03 2021
$end
$version
  2020.2
$end
$timescale
  1ps
$end
$scope module testbench $end
$var reg 1 ! x $end
$var reg 1 " clk $end
$var reg 1 # reset $end
$var wire 1 $ z $end
$upscope $end
$enddefinitions $end
#0
$dumpvars
x!
0"
1#
0$
$end
#5000
1"
#10000
0"
#12000
0!
#15000
1"
0#
#20000
0"
#25000
1"
#30000
0"
#32000
1!
#35000
1"
#40000
0"
#42000
0!
#45000
1"
#50000
0"
#54000
1!
#55000
1"
#60000
0"
#65000
1"
1$
#70000
0"
#74000
0!
#75000
1"
0$
#80000
0"
#84000
1!
#85000
1"
#90000
0"
#95000
1"
1$
#100000
0"
#105000
1"
0$
#106000
0!
#110000
0"
#115000
1"
#120000
0"
#125000
1"
#126000
1!
#130000
0"
#135000
1"
#138000
0!
#140000
0"
#145000
1"
#148000
1!
#150000
0"
#155000
1"
#160000
0"
#165000
1"
1$
#168000
0!
#170000
0"
#175000
1"
0$
